What the Package Does (One Line, Title Case) • nyczips
…
nyc_zips
#> # A tibble: 255 × 7
#>    zip   borough   city     county          long_county     short_county po_name
#>    <chr> <chr>     <chr>    <chr>           <chr>           <chr>        <chr>  
#>  1 10001 Manhattan New York New York County New York Count… New York     New Yo…
#>  2 10002 Manhattan New York New York County New York Count… New York     New Yo…
#>  3 10003 Manhattan New York New York County New York Count… New York     New Yo…
#>  4 10004 Manhattan New York New York County New York Count… New York     New Yo…
#>  5 10005 Manhattan New York New York County New York Count… New York     New Yo…
#>  6 10006 Manhattan New York New York County New York Count… New York     New Yo…
#>  7 10007 Manhattan New York New York County New York Count… New York     New Yo…
#>  8 10009 Manhattan New York New York County New York Count… New York     New Yo…
#>  9 10010 Manhattan New York New York County New York Count… New York     New Yo…
#> 10 10011 Manhattan New York New York County New York Count… New York     New Yo…
#> # ℹ 245 more rows
…
