…
nyc_zips
#> # A tibble: 211 × 6
#>      zip borough       city          county          long_county    short_county
#>    <dbl> <chr>         <chr>         <chr>           <chr>          <chr>       
#>  1 11368 Queens        Corona        Queens County   Queens County… Queens      
#>  2 11208 Brooklyn      Brooklyn      Kings County    Kings County,… Kings       
#>  3 11385 Queens        Ridgewood     Queens County   Queens County… Queens      
#>  4 11373 Queens        Elmhurst      Queens County   Queens County… Queens      
#>  5 11226 Brooklyn      Brooklyn      Kings County    Kings County,… Kings       
#>  6 11236 Brooklyn      Brooklyn      Kings County    Kings County,… Kings       
#>  7 10467 Bronx         Bronx         Bronx County    Bronx County,… Bronx       
#>  8 10025 Manhattan     New York      New York County New York Coun… New York    
#>  9 11207 Brooklyn      Brooklyn      Kings County    Kings County,… Kings       
#> 10 10314 Staten Island Staten Island Richmond County Richmond Coun… Richmond    
#> # ℹ 201 more rows
…
